{
    "services": {
      "CoAuthoring": {
        "sql": {
          "type": "postgres",
          "dbHost": "localhost",
          "dbPort": "5432",
          "dbName": "onlyoffice",
          "dbUser": "onlyoffice",
          "dbPass": "onlyoffice"
        },
        "token": {
          "enable": {
            "request": {
              "inbox": true,
              "outbox": true
            },
            "browser": true
          },
          "inbox": {
            "header": "Authorization"
          },
          "outbox": {
            "header": "Authorization"
          }
        },
        "secret": {
          "inbox": {
            "string": "secret"
          },
          "outbox": {
            "string": "secret"
          },
          "session": {
            "string": "secret"
          }
        }
      }
    },
    "rabbitmq": {
      "url": "amqp://guest:guest@localhost"
    }
  }